{
  "compilerOptions": {
    "target": "es2017",
    "allowSyntheticDefaultImports": false,
    "baseUrl": "./",
    "paths": {
      "app/*": ["src/app/*"],
      "assets/*": ["src/assets/*"],
    }
  },
  "exclude": ["dist"]
}
